
Written:
1B 50 33 23 65 38 41 1B 5C                         .P3#e8A.\

Read:
1B 50 31 38 23 5A 23 65 1B 5C                      .P18#Z#e.\

Written:
1B 50 30 3B 33 24 68 0D 0D 0D 38 36 1B 5C          .P0;3$h...86.\

Read:

Written:
1B 50 31 24 6C 30 30 34 2E 32 36 35 38 73 38 73    .P1$l004.2658s8s
33 36 30 30 0D 32 0D 41 2F 31 36 2C 31 38 2F 33    3600.2.A/16,18/3
32 2C 33 36 2F 46 45 1B 5C                         2,36/FE.\

Read:

Written:
1B 50 32 24 6C 30 30 34 2E 34 35 32 37 73 37 73    .P2$l004.4527s7s
33 36 30 30 0D 31 0D 41 2F 31 34 36 2C 32 36 2F    3600.1.A/146,26/
31 34 36 2C 32 36 2F 46 36 1B 5C                   146,26/F6.\

Read:

Written:
1B 50 33 24 6C 30 30 34 2E 32 34 38 34 73 34 73    .P3$l004.2484s4s
34 32 32 33 33 0D 33 0D 41 2F 34 38 2C 37 2F 31    42233.3.A/48,7/1
34 36 2C 31 2F 46 30 1B 5C                         46,1/F0.\

Read:

Written:
1B 50 31 3B 30 3B 30 3B 30 3B 30 3B 31 24 65 4B    .P1;0;0;0;0;1$eK
30 31 0D 33 32 34 2C 37 32 2F 33 32 34 2C 37 32    01.324,72/324,72
2F 30 2F 44 44 1B 5C                               /0/DD.\

Read:
